<svg xmlns="http://www.w3.org/2000/svg" xmlns:xlink="http://www.w3.org/1999/xlink" width="2000" height="1231.728" viewBox="0 0 2000 1231.728">
  <defs>
    <style>
      .cls-1 {
        opacity: 0.597;
        fill: url(#linear-gradient);
      }
    </style>
    <linearGradient id="linear-gradient" x1="-0.129" y1="0.207" x2="1.339" y2="1.224" gradientUnits="objectBoundingBox">
      <stop offset="0" stop-color="#982875"/>
      <stop offset="1" stop-color="#2e29ad"/>
    </linearGradient>
  </defs>
  <path id="Intersection_16" data-name="Intersection 16" class="cls-1" d="M370.48,1052.807,0,695.038V0H2000V1056.991c-220.025,135.906-505.605,125.99-716.54-32.2-3.782,4.126-7.646,8.233-11.557,12.283-125.079,129.524-291.769,194.65-458.648,194.656C653.825,1231.734,494.223,1172.3,370.48,1052.807Z"/>
</svg>
